{
    "fluentMethods": true,
    "relationships": [
        {
            "relationshipType": "one-to-many",
            "relationshipName": "dirperjuri",
            "otherEntityName": "dirperjuri",
            "otherEntityRelationshipName": "perjuridica"
        },
        {
            "relationshipType": "one-to-many",
            "relationshipName": "empleador",
            "otherEntityName": "empleador",
            "otherEntityRelationshipName": "perjuridica"
        },
        {
            "relationshipName": "tipdocident",
            "otherEntityName": "tipdocident",
            "relationshipType": "many-to-one",
            "otherEntityField": "id"
        }
    ],
    "fields": [
        {
            "fieldName": "vRazsocial",
            "javadoc": "RAZON SOCIAL DE LA PERSONA JURIDICA.",
            "fieldType": "String",
            "fieldValidateRules": [
                "required",
                "maxlength"
            ],
            "fieldValidateRulesMaxlength": 200
        },
        {
            "fieldName": "vNomalter",
            "javadoc": "NOMBRE ALTERNATIVO DE LA PERSONA JURIDICA.",
            "fieldType": "String",
            "fieldValidateRules": [
                "maxlength"
            ],
            "fieldValidateRulesMaxlength": 200
        },
        {
            "fieldName": "vNumdoc",
            "javadoc": "NUMERO DE DOCUMENTO DE IDENTIDAD DE LA PERSONA JURIDICA.",
            "fieldType": "String",
            "fieldValidateRules": [
                "required",
                "maxlength"
            ],
            "fieldValidateRulesMaxlength": 15
        },
        {
            "fieldName": "vEmailper",
            "javadoc": "CORREO ELECTRONICO DE LA PERSONA JURIDICA.",
            "fieldType": "String",
            "fieldValidateRules": [
                "maxlength"
            ],
            "fieldValidateRulesMaxlength": 100
        },
        {
            "fieldName": "vTelefono",
            "javadoc": "TELEFONO DE REFERENCIA DE LA PERSONA JURIDICA",
            "fieldType": "String",
            "fieldValidateRules": [
                "maxlength"
            ],
            "fieldValidateRulesMaxlength": 15
        },
        {
            "fieldName": "vFaxperju",
            "javadoc": "NUMERO DE FAX DE  LA PERSONA JURIDICA.",
            "fieldType": "String",
            "fieldValidateRules": [
                "maxlength"
            ],
            "fieldValidateRulesMaxlength": 15
        },
        {
            "fieldName": "vEstado",
            "javadoc": "ESTADO DE LA PERSONA JURIDICA.",
            "fieldType": "String",
            "fieldValidateRules": [
                "required",
                "maxlength"
            ],
            "fieldValidateRulesMaxlength": 1
        },
        {
            "fieldName": "nUsuareg",
            "javadoc": "CODIGO DEL USUARIO QUE REGISTRA.",
            "fieldType": "Integer",
            "fieldValidateRules": [
                "required"
            ]
        },
        {
            "fieldName": "tFecreg",
            "javadoc": "FECHA Y HORA DEL REGISTRO.",
            "fieldType": "Instant",
            "fieldValidateRules": [
                "required"
            ]
        },
        {
            "fieldName": "nFlgactivo",
            "javadoc": "ESTADO ACTIVO DEL REGISTRO (1=ACTIVO, 0=INACTIVO)",
            "fieldType": "Boolean",
            "fieldValidateRules": [
                "required"
            ]
        },
        {
            "fieldName": "nSedereg",
            "javadoc": "CODIGO DE LA SEDE DONDE SE REGISTRA.",
            "fieldType": "Integer",
            "fieldValidateRules": [
                "required"
            ]
        },
        {
            "fieldName": "nUsuaupd",
            "javadoc": "CODIGO DEL USUARIO QUE MODIFICA EL REGISTRO.",
            "fieldType": "Integer"
        },
        {
            "fieldName": "tFecupd",
            "javadoc": "CODIGO DEL USUARIO QUE MODIFICA EL REGISTRO.",
            "fieldType": "Instant"
        },
        {
            "fieldName": "nSedeupd",
            "javadoc": "CODIGO DE LA SEDE DONDE SE MODIFICA EL REGISTRO.",
            "fieldType": "Integer"
        }
    ],
    "changelogDate": "20171124232652",
    "javadoc": "LISTA MAESTRA DE PERSONAS JURIDICAS",
    "entityTableName": "perjuridica",
    "dto": "no",
    "pagination": "no",
    "service": "no",
    "jpaMetamodelFiltering": false,
    "microserviceName": "DEFENSA"
}